Chapter 2 Data Exploration and Visualization | Society of Actuaries Exam PA
…
In the case of the persinj data set, instead of having the information for each individual claim, the data may have already been grouped by certain categorical variables, such as inj code.

The code below produces a version of persinj data, called persinj_by_inj, that shows the number of observations for each level of inj. The code involves the tidyverse package, which was featured in some past PA exams. Instead of worrying about the somewhat convoluted code syntax, pay attention to the output, which is far more important in the new exam format.

#install.packages("tidyverse")

library(tidyverse)

persinj_by_inj <- persinj %>% 
  group_by(inj) %>% # grouped by inj
  summarize(count=n()) # count the no. of obs. for each level of inj

persinj_by_inj
#> # A tibble: 7 × 2
#>   inj   count
#>   <fct> <int>
#> 1 1     15638
#> 2 2      3376
#> 3 3      1133
#> 4 4       189
#> # ℹ 3 more rows
…
Descriptive Statistics: To summarize the association between a numeric variable and a categorical variable, we can partition the data into different subsets, one subset for each level of the categorical variable, and compute the mean of the numeric variable there. These conditional means varying substantially may suggest a strong relationship between the two variables.

In the code below, we produce a table of the mean of the log-transformed claim amount (it is also fine to use the untransformed claim amount variable) split by the different levels of inj and legrep, which are categorical.

library(tidyverse)

# Partitioned by `inj` code
persinj %>% 
  group_by(inj) %>%
  summarize(
    mean=mean(log(amt)),
    median=median(log(amt)),
    n=n()
  )
#> # A tibble: 7 × 4
#>   inj    mean median     n
#>   <fct> <dbl>  <dbl> <int>
#> 1 1      9.37   9.36 15638
#> 2 2     10.3   10.3   3376
#> 3 3     10.7   10.9   1133
#> 4 4     11.0   11.2    189
#> # ℹ 3 more rows
…
